C
D
A
B+
D+
B+
B+
C+
D+
B+
B+
B+
B+
B+
C-
B-
C
B+
B+
D+
C+
D+
F
F
B+
B+
B+
B-
B
B+
C
B-
A
B+
B-
B+
D+
B+
A
B+
B-
D+
D+
D+
B+
D-
F
D+
B+
B-
B+
F
D-
B+
B+
A
B+
B+
D-
D+
F
C+
D+
C
B+
C+
D+
B-
C+
B+
F
D+
B+
B+
D+
A
F
B-
D+
C-
A
B+
B+
B
B+
B-
C
F
C
B+
B+
D+
C+
B-
B+
D+
C+
C+
B-
C
B-
C+
A
B-
B-
B+
F
D+
B+
B+
F
D+
B
D+
D+
B-
B-
F
B+
D+
D+
D-
B+
D+
D-
A
B+
B+
D+
B+
C+
A
B+
B+
A-
B+
B
D+
C-
B+
C+
C
B+
B+
B+
B-
A
B+
B-
B+
B-
D+
B+
B-
A
B+
D+
D+
B-
C+
B
D+
C
B-
C
B-
B+
C+
C-
A
B-
B+
B+
B-
C+
B+
F
B+
B+
D+
B
B+
B-
C+
B+
D+
B+
D+
B+
B-
B-
B+
C
D+
B-
C
A-
B+
B+
B+
B
C+
C+
A
B-
A
B+
B-
F
D+
D+
A
B+
A-
B+
B-
A
C+
B+
D-
C
B
C+
B-
C-
C
B+
B+
B+
B+
B+
C-
B-
C
B+
A
B
C
B
C
B+
A
B+
B+
B+
F
D+
D+
B+
C+
B+
B+
C
B+
D+
D+
B+
B+
B+
B
C-
B+
C+
B+
