B+
A
B+
B-
A
A
F
B+
A
C+
B+
A
B+
A
B+
B+
D+
B+
A
A
A
A
A
A-
A
A
A
B+
B+
A
B+
A-
A
B
B+
B+
B+
A
D+
A
A
A
B+
B+
B+
B+
A
A
B+
A
A
B+
A
B-
A
B+
A-
B+
B+
A
B+
B+
B+
B+
D+
A
B+
A
A
B+
A
B+
B+
A
A
B+
A
A
A
A
B+
B+
A
A
B+
A
A
A
A
B+
B+
B+
D+
D+
B+
A
B+
A
C+
A
B+
A
B+
B+
B+
A
A
A
A
B+
A
A
A
A
A
A
B+
A
B-
A
B-
A
A
A
B-
A
C+
B+
A
A
B+
A
B+
A
A
A
B+
A
A
A
B+
A
A-
B+
A
A
A
A
B+
B+
A
A
A
B+
B+
B+
B-
A
C
B+
B+
B+
D+
A
A-
A
B+
B+
B-
B+
A
B+
B+
B+
A
A
B+
A
B+
A
A
A
C
B+
A
B+
B+
D+
B+
A
A
B+
A-
B+
B+
A
B+
A-
B+
B+
A
A
A
A
A-
B-
B+
B+
C+
B+
B+
D+
B+
B
B+
B+
B-
A
B-
B+
B+
B+
B+
B+
B+
B+
B+
C
A
A
A
A
A
A
B+
A
B+
B+
A
A-
B+
B+
A
A
D+
A
A
A
A-
A
A
A-
B+
A
A
B+
B+
B-
A
A
B+
A
A
B+
B+
B-
B+
B+
B+
A
B+
A
B-
A
B+
A
A-
B-
B+
B+
B+
A
B+
B+
A
C+
B+
B+
A
A
A
A
B+
B+
A
B-
B-
B+
B+
