C
F
B-
B+
A
B+
F
D+
D+
D+
D+
B+
C
B+
B+
B+
B+
D+
F
D+
F
B+
A
A
B-
D+
A
C
F
F
B-
D+
C
B-
C
C
B+
D-
B+
D+
C
F
D+
D+
F
F
C
F
D+
F
F
F
D+
D+
B+
B+
B+
A
F
B-
B+
F
B-
B+
F
D+
F
D+
B+
D+
D+
B+
A
A
D+
D+
B+
B+
B+
D+
B+
F
B+
B-
C
D+
D+
F
B+
A
D+
F
A
B-
B+
B+
D+
B-
A
D+
D+
B+
A
B-
B+
D+
F
F
B+
D-
B-
D+
B+
B-
D+
B+
A
D+
B+
D+
B-
D+
D+
D+
B-
D+
D+
A
A
B+
A
A
B+
F
D-
A
D+
B+
A
F
F
D+
D+
F
C
C
D-
B+
F
F
B-
D+
D+
B+
D+
F
D+
C
F
B+
D+
A
B+
D+
D+
D+
D-
F
D+
F
B-
D+
D+
B-
A
F
A
D-
A
B-
F
D+
F
B+
B+
B-
A
A
B+
C
A
B+
D+
D+
A
D+
D+
F
C
B-
B+
C
B+
F
D+
A
F
C
B+
A
D+
F
B-
A
A
A
D-
A
F
B+
D+
B-
B+
B+
D+
B-
B+
C
F
B-
B-
D+
A
B+
D+
F
A
B-
B+
F
D+
