F
B+
B+
B+
B+
D+
B+
B+
C
A
B+
D+
D+
C
B+
B+
B-
A
B-
A
B+
B+
B+
B+
D+
B+
A
B-
A
A
D+
A-
B+
D+
F
B+
B+
B-
C-
B+
F
C
B+
D+
C
C+
B+
B+
B-
C
B+
B-
B-
F
B+
B+
B-
B-
B+
B-
C
B+
B-
B-
D+
B-
C
B+
D-
B-
F
B
B+
D+
B+
C+
D+
B+
C+
B-
F
D+
B
D+
D+
B+
B-
A
D+
B+
B+
B+
B-
D+
B+
C
D+
D+
B-
C
B+
B-
B
B
B-
B-
D+
B+
B-
D+
B-
F
B+
B-
C+
B+
F
B
D+
D+
B+
B-
D+
B-
D+
C
A
D-
D+
D+
B-
B+
B+
B-
D+
B-
C
B
B
C+
B+
D+
B+
B+
D+
D+
B-
B+
B+
B-
D+
B-
C+
B+
B
D+
C+
C-
C-
B-
C
B
C
C+
B+
B+
B+
B-
B-
B+
B+
B-
C
B-
D-
B-
C+
C+
C+
B-
B+
B+
D+
C+
B+
D+
D+
B-
C-
F
B+
B+
F
C
D+
B+
D-
B-
B-
D+
D+
D-
D+
D+
C+
F
B+
C
B
D+
D+
A
B-
C+
C
B+
B-
C+
B+
B+
B+
C
B-
B+
B+
B+
B-
B-
A
D+
B+
B+
B-
C+
C
C
D+
B+
B
D+
D+
B+
D+
B-
B+
B-
C
A
D-
B-
A
F
B-
B
C+
B-
B+
D+
B-
C+
D+
B+
B-
C
